<?xml version="1.0" encoding="UTF-8" standalone="no"?>
<svg
   xmlns:dc="http://purl.org/dc/elements/1.1/"
   xmlns:cc="http://creativecommons.org/ns#"
   xmlns:rdf="http://www.w3.org/1999/02/22-rdf-syntax-ns#"
   xmlns:svg="http://www.w3.org/2000/svg"
   xmlns="http://www.w3.org/2000/svg"
   xmlns:sodipodi="http://sodipodi.sourceforge.net/DTD/sodipodi-0.dtd"
   xmlns:inkscape="http://www.inkscape.org/namespaces/inkscape"
   width="2000"
   height="512"
   viewBox="0 0 529.16664 135.46667"
   version="1.1"
   id="svg5366"
   sodipodi:docname="PowerdedBySCIO_Gold.svg"
   inkscape:version="1.0.1 (3bc2e813f5, 2020-09-07)">
  <sodipodi:namedview
     pagecolor="#ffffff"
     bordercolor="#666666"
     borderopacity="1"
     objecttolerance="10"
     gridtolerance="10"
     guidetolerance="10"
     inkscape:pageopacity="0"
     inkscape:pageshadow="2"
     inkscape:window-width="1918"
     inkscape:window-height="992"
     id="namedview6214"
     showgrid="false"
     inkscape:zoom="0.31239855"
     inkscape:cx="88.851235"
     inkscape:cy="546.31097"
     inkscape:window-x="0"
     inkscape:window-y="0"
     inkscape:window-maximized="1"
     inkscape:current-layer="svg5366"
     units="px"
     inkscape:document-rotation="0" />
  <defs
     id="defs5360" />
  <metadata
     id="metadata5363">
    <rdf:RDF>
      <cc:Work
         rdf:about="">
        <dc:format>image/svg+xml</dc:format>
        <dc:type
           rdf:resource="http://purl.org/dc/dcmitype/StillImage" />
        <dc:title></dc:title>
      </cc:Work>
    </rdf:RDF>
  </metadata>
  <g
     transform="matrix(1.68204,0,0,1.68204,386.21102,-64.188046)"
     id="g845">
    <path
       style="fill:#f49600;fill-opacity:1;stroke:none;stroke-width:0.0264583;stroke-linecap:butt;stroke-linejoin:miter;stroke-miterlimit:4;stroke-dasharray:none;stroke-opacity:1"
       d="m 19.01525,52.46293 c -2.66462,4.81921 -4.20473,9.70445 -5.81101,14.65595 l 6.22339,7.57732 4.38681,-7.38353 C 21.50915,62.42903 20.32836,57.80959 19.01525,52.46293 Z"
       id="path859-0"
       inkscape:connector-curvature="0" />
    <path
       style="fill:#f4b600;fill-opacity:1;stroke:none;stroke-width:0.0264583;stroke-linecap:butt;stroke-linejoin:miter;stroke-miterlimit:4;stroke-dasharray:none;stroke-opacity:1"
       d="m 12.3061,69.59884 -1.67948,4.64777 9.30537,11.75329 6.54172,-11.3223 -1.63297,-4.53513 -5.26738,8.28787 z m 0.17622,0.91674 7.14478,8.73538 5.0891,-8.12095 1.2361,3.42356 -6.12211,10.55853 -8.67492,-10.9244 z"
       id="path861-3"
       inkscape:connector-curvature="0" />
    <path
       style="fill:#f48100;fill-opacity:1;stroke:none;stroke-width:0.0264583;stroke-linecap:butt;stroke-linejoin:miter;stroke-miterlimit:4;stroke-dasharray:none;stroke-opacity:1"
       d="M 9.6384299,76.97944 20.14818,89.88249 C 27.30223,79.61021 35.38231,61.13586 42.13948,59.19796 38.42019,62.36447 27.55715,84.71328 20.53057,97.53708 L 7.8605201,81.90661 Z"
       id="path863-2"
       inkscape:connector-curvature="0" />
  </g>
  <path
     sodipodi:nodetypes="ccccccccccccc"
     inkscape:connector-curvature="0"
     id="path858-1"
     d="m 418.40499,13.149228 c -8.51365,8.274913 -22.75636,15.594994 -40.57927,14.799325 -4.93313,46.148561 25.22246,77.020937 41.05619,82.590597 12.94397,-5.21936 38.48689,-28.516771 41.17458,-65.578925 0.0969,-1.288153 -2.17997,-1.64928 -2.36401,-0.02993 -2.12902,35.474579 -26.51498,57.784585 -38.81588,62.744635 -14.90236,-5.24204 -43.2839,-34.297581 -38.64096,-77.731537 16.77448,0.748872 30.17912,-6.141129 38.19195,-13.929286 7.66349,7.106168 20.96553,14.017524 35.56522,14.222625 0.071,9.88e-4 0.14253,-0.0014 0.2135,-6.81e-4 1.45019,0.02183 1.39748,-2.02109 0.0525,-2.0414 -14.74653,-0.767374 -28.05129,-7.81033 -35.85382,-15.045443 z"
     style="fill:#b3b3b3;fill-opacity:0.945098;stroke:none;stroke-width:0.255781px;stroke-linecap:butt;stroke-linejoin:miter;stroke-opacity:1" />
  <text
     id="text903"
     y="90.470764"
     x="57.613728"
     style="font-style:normal;font-weight:normal;font-size:12.8625px;line-height:1.25;font-family:sans-serif;letter-spacing:0px;word-spacing:0px;fill:#b3b3b3;fill-opacity:0.945098;stroke:#b3b3b3;stroke-width:0.321563"
     xml:space="preserve"><tspan
       style="font-style:normal;font-variant:normal;font-weight:normal;font-stretch:normal;font-size:27.4401px;font-family:Michroma;-inkscape-font-specification:Michroma;fill:#b3b3b3;fill-opacity:0.945098;stroke:#b3b3b3;stroke-width:0.321563"
       y="90.470764"
       x="57.613728"
       id="tspan901"
       sodipodi:role="line">Powered by SCIO</tspan></text>
</svg>
