<?xml version="1.0" encoding="UTF-8" standalone="no"?>
<svg
   xmlns:dc="http://purl.org/dc/elements/1.1/"
   xmlns:cc="http://creativecommons.org/ns#"
   xmlns:rdf="http://www.w3.org/1999/02/22-rdf-syntax-ns#"
   xmlns:svg="http://www.w3.org/2000/svg"
   xmlns="http://www.w3.org/2000/svg"
   width="150"
   height="150"
   viewBox="0 0 39.687499 39.687501"
   version="1.1"
   id="svg106074">
  <defs
     id="defs106068" />
  <metadata
     id="metadata106071">
    <rdf:RDF>
      <cc:Work
         rdf:about="">
        <dc:format>image/svg+xml</dc:format>
        <dc:type
           rdf:resource="http://purl.org/dc/dcmitype/StillImage" />
        <dc:title></dc:title>
      </cc:Work>
    </rdf:RDF>
  </metadata>
  <g
     id="layer1">
    <g
       id="layer1-3"
       transform="matrix(1.6902154,0,0,1.6902154,1.508434,-463.81488)"
       style="fill:#ebd774;fill-opacity:1">
      <g
         id="g3620"
         transform="matrix(0.3499328,0,0,-0.3499328,-78.73488,379.93406)"
         style="fill:#ebd774;fill-opacity:1">
        <path
           d="m 276,259 h -32 v 2 h 32 v -2"
           style="fill:#ebd774;fill-opacity:1;fill-rule:nonzero;stroke:none;stroke-width:0.1"
           id="path1168" />
        <path
           d="m 286,259 h -8 v 2 h 8 v -2"
           style="fill:#ebd774;fill-opacity:1;fill-rule:nonzero;stroke:none;stroke-width:0.1"
           id="path1170" />
        <path
           d="m 245,263 v -23 c 0,-0.552 0.448,-1 1,-1 h 38 c 0.552,0 1,0.448 1,1 v 27 h -16.382 l -2,-4 z m 39,-26 h -38 c -1.654,0 -3,1.346 -3,3 v 25 h 22.382 l 2,4 H 287 v -29 c 0,-1.654 -1.346,-3 -3,-3"
           style="fill:#ebd774;fill-opacity:1;fill-rule:nonzero;stroke:none;stroke-width:0.1"
           id="path1172" />
        <path
           d="m 244,247 h -8.414 L 225,257.586 V 299 h 40 v -35 h -2 v 33 H 227 V 258.414 L 236.414,249 H 244 v -2"
           style="fill:#ebd774;fill-opacity:1;fill-rule:nonzero;stroke:none;stroke-width:0.1"
           id="path1174" />
        <path
           d="m 237,248 h -2 v 9 h -9 v 2 h 11 v -11"
           style="fill:#ebd774;fill-opacity:1;fill-rule:nonzero;stroke:none;stroke-width:0.1"
           id="path1176" />
        <path
           d="m 234,291 c -0.552,0 -1,-0.448 -1,-1 v -16 c 0,-0.552 0.448,-1 1,-1 h 22 c 0.552,0 1,0.448 1,1 v 16 c 0,0.552 -0.448,1 -1,1 z m 22,-20 h -22 c -1.654,0 -3,1.346 -3,3 v 16 c 0,1.654 1.346,3 3,3 h 22 c 1.654,0 3,-1.346 3,-3 v -16 c 0,-1.654 -1.346,-3 -3,-3"
           style="fill:#ebd774;fill-opacity:1;fill-rule:nonzero;stroke:none;stroke-width:0.1"
           id="path1178" />
        <path
           d="m 245,287 c -1.654,0 -3,-1.346 -3,-3 0,-1.654 1.346,-3 3,-3 1.654,0 3,1.346 3,3 0,1.654 -1.346,3 -3,3 z m 0,-8 c -2.757,0 -5,2.243 -5,5 0,2.757 2.243,5 5,5 2.757,0 5,-2.243 5,-5 0,-2.757 -2.243,-5 -5,-5"
           style="fill:#ebd774;fill-opacity:1;fill-rule:nonzero;stroke:none;stroke-width:0.1"
           id="path1180" />
        <path
           d="m 253,272 h -2 v 3.969 c 0,0.822 -0.493,1.552 -1.257,1.856 L 246.808,279 h -3.616 l -2.935,-1.175 C 239.493,277.521 239,276.791 239,275.969 V 272 h -2 v 3.969 c 0,1.645 0.987,3.103 2.515,3.714 l 3.293,1.317 h 4.384 l 3.293,-1.317 c 1.528,-0.611 2.515,-2.069 2.515,-3.714 V 272"
           style="fill:#ebd774;fill-opacity:1;fill-rule:nonzero;stroke:none;stroke-width:0.1"
           id="path1182" />
        <path
           d="m 272,249 h -2 v 2 h 2 v -2"
           style="fill:#ebd774;fill-opacity:1;fill-rule:nonzero;stroke:none;stroke-width:0.1"
           id="path1184" />
        <path
           d="m 283,249 h -9 v 2 h 9 v -2"
           style="fill:#ebd774;fill-opacity:1;fill-rule:nonzero;stroke:none;stroke-width:0.1"
           id="path1186" />
        <path
           d="m 283,245 h -9 v 2 h 9 v -2"
           style="fill:#ebd774;fill-opacity:1;fill-rule:nonzero;stroke:none;stroke-width:0.1"
           id="path1188" />
        <path
           d="m 272,245 h -9 v 2 h 9 v -2"
           style="fill:#ebd774;fill-opacity:1;fill-rule:nonzero;stroke:none;stroke-width:0.1"
           id="path1190" />
        <path
           d="m 272,241 h -9 v 2 h 9 v -2"
           style="fill:#ebd774;fill-opacity:1;fill-rule:nonzero;stroke:none;stroke-width:0.1"
           id="path1192" />
        <path
           d="m 283,241 h -2 v 2 h 2 v -2"
           style="fill:#ebd774;fill-opacity:1;fill-rule:nonzero;stroke:none;stroke-width:0.1"
           id="path1194" />
        <path
           d="m 279,241 h -5 v 2 h 5 v -2"
           style="fill:#ebd774;fill-opacity:1;fill-rule:nonzero;stroke:none;stroke-width:0.1"
           id="path1196" />
      </g>
    </g>
  </g>
</svg>
